{
    "replace":false,
    "values":[
        "minecraft:diamond_shovel",
        "minecraft:golden_shovel",
        "minecraft:wooden_shovel",
        "minecraft:iron_shovel",
        "minecraft:stone_shovel",
        "minecraft:netherite_shovel"
    ]
}